[
    {
        "name" : "com.amazonaws.partitions.model.Partitions",
        "allPublicMethods" : true,
        "allDeclaredConstructors" : true
      }, {
        "name" : "com.amazonaws.partitions.model.Partition",
        "allPublicMethods" : true,
        "allDeclaredConstructors" : true
      }, {
        "name" : "com.amazonaws.partitions.model.Endpoint",
        "allPublicMethods" : true,
        "allDeclaredConstructors" : true
      }, {
        "name" : "com.amazonaws.partitions.model.Region",
        "allPublicMethods" : true,
        "allDeclaredConstructors" : true
      }, {
        "name" : "com.amazonaws.partitions.model.Service",
        "allPublicMethods" : true,
        "allDeclaredConstructors" : true
      }, {
        "name" : "com.amazonaws.partitions.model.CredentialScope",
        "allPublicMethods" : true,
        "allDeclaredConstructors" : true
      }, {
        "name" : "java.util.HashSet",
        "allPublicMethods" : true,
        "allDeclaredConstructors" : true
      }, {
        "name" : "com.amazonaws.auth.AWS4Signer",
        "allDeclaredConstructors" : true,
        "allPublicConstructors" : true,
        "allDeclaredMethods" : true,
        "allPublicMethods" : true,
        "allDeclaredFields" : true,
        "allPublicFields" : true
      }, {
        "name" : "com.amazonaws.util.XpathUtils",
        "allDeclaredConstructors" : true,
        "allPublicConstructors" : true,
        "allDeclaredMethods" : true,
        "allPublicMethods" : true,
        "allDeclaredFields" : true,
        "allPublicFields" : true
      }, {
        "name" : "javax.ws.rs.core.Response",
        "allDeclaredConstructors" : true,
        "allPublicConstructors" : true,
        "allDeclaredMethods" : true,
        "allPublicMethods" : true,
        "allDeclaredFields" : true,
        "allPublicFields" : true
      }
]